Chapter 3 Data transformation | Analyze the Change of New York House Prices from 2000-2020
…
3.1 Import Data

The Department of Finance’s Rolling Sales files lists properties that sold in the last twelve-month period in New York City. We display the variables names of the datasets:

##  [1] "BOROUGH"                        "NEIGHBORHOOD"                   "BUILDING CLASS CATEGORY"       
##  [4] "TAX CLASS AT PRESENT"           "BLOCK"                          "LOT"                           
##  [7] "EASEMENT"                       "BUILDING CLASS AT PRESENT"      "ADDRESS"                       
## [10] "APARTMENT NUMBER"               "ZIP CODE"                       "RESIDENTIAL UNITS"             
## [13] "COMMERCIAL UNITS"               "TOTAL UNITS"                    "LAND SQUARE FEET"              
## [16] "GROSS SQUARE FEET"              "YEAR BUILT"                     "TAX CLASS AT TIME OF SALE"     
## [19] "BUILDING CLASS AT TIME OF SALE" "SALE PRICE"                     "SALE DATE"

Pick a dataset to take a brief look at:

## # A tibble: 7,593 × 21
##    BOROUGH NEIGHBORHOOD `BUILDING CLASS CATEGORY` `TAX CLASS AT PR… BLOCK   LOT EASEMENT `BUILDING CLASS… ADDRESS `APARTMENT NUMB…
##    <chr>   <chr>        <chr>                     <chr>             <dbl> <dbl> <lgl>    <chr>            <chr>   <chr>           
##  1 2       BATHGATE     01 ONE FAMILY DWELLINGS   1                  3037   101 NA       S0               443 EA… <NA>            
##  2 2       BATHGATE     01 ONE FAMILY DWELLINGS   1                  3039    63 NA       A1               469 EA… <NA>            
##  3 2       BATHGATE     01 ONE FAMILY DWELLINGS   1                  3045    12 NA       A1               2052 B… <NA>            
##  4 2       BATHGATE     01 ONE FAMILY DWELLINGS   1                  3046    39 NA       A1               2075 B… <NA>            
##  5 2       BATHGATE     01 ONE FAMILY DWELLINGS   1                  3048    28 NA       A1               540 E … <NA>            
##  6 2       BATHGATE     01 ONE FAMILY DWELLINGS   1                  3053   108 NA       A9               2317 B… <NA>            
##  7 2       BATHGATE     02 TWO FAMILY DWELLINGS   1                  2912   135 NA       B1               492 CL… <NA>            
##  8 2       BATHGATE     02 TWO FAMILY DWELLINGS   1                  2912   145 NA       B1               3811 3… <NA>            
##  9 2       BATHGATE     02 TWO FAMILY DWELLINGS   1                  2912   145 NA       B1               3811 3… <NA>            
## 10 2       BATHGATE     02 TWO FAMILY DWELLINGS   1                  2912   146 NA       B1               3809 3… <NA>            
## # … with 7,583 more rows, and 11 more variables: ZIP CODE <dbl>, RESIDENTIAL UNITS <dbl>, COMMERCIAL UNITS <dbl>,
## #   TOTAL UNITS <dbl>, LAND SQUARE FEET <dbl>, GROSS SQUARE FEET <dbl>, YEAR BUILT <dbl>, TAX CLASS AT TIME OF SALE <chr>,
## #   BUILDING CLASS AT TIME OF SALE <chr>, SALE PRICE <dbl>, SALE DATE <dttm>
…
